         run       event       nTopo   nIdTracks       nJets      nMuons       nElec   nTrueElec   nFakeElec       nPhot   nTruePhot   nFakePhot
      284500    87473001         122         129           4           1           8           2           6           7           4           3
      284500    87473014          83          79           6           0          10           1           9           7           5           2
      284500    87473022          38          30           4           0           4           2           2           4           3           1
      284500    87473032          30          33           4           1          10           4           6           6           3           3
      284500    87473037          62          43           7           0          13           2          11           5           3           2
      284500    87473040         107          93          10           1          17           1          16          11           6           5
      284500    87473051         140         112          11           1          16           1          15          23          16           7
      284500    87473063          62          77           5           2           7           1           6           6           4           2
      284500    87473068          25          33           1           1           0           0           0           0           0           0
      284500    87473075          60          87           6           2           5           0           5           6           5           1
      284500    87473084          78          86           7           2          14           1          13           9           3           6
      284500    87473091          41          49           3           0           4           2           2           4           2           2
      284500    87473096          66          75           3           2           3           0           3           4           3           1
      284500    87473104          64          63           6           0           6           2           4           4           3           1
      284500    87473114          89          77           7           2          12           1          11           9           6           3
      284500    87473121          93         100           6           3          15           4          11           8           6           2
      284500    87473132          84          60           9           1          12           0          12           4           4           0
      284500    87473137          94          71           8           3          15           0          15           9           9           0
      284500    87473144          78          68           7           1           9           3           6           9           7           2
      284500    87473154          86          88           7           0          13           2          11           9           4           5
      284500    87473162          53          53           4           0           7           0           7           3           2           1
      284500    87473167          77          55           6           3          14           2          12          13           8           5
      284500    87473171          77          69           8           3           4           2           2           5           4           1
      284500    87473184          75          86           5           2           8           1           7           5           3           2
      284500    87473192          55          52           4           1           7           4           3           5           4           1
